(module ABS07_crystal (layer F.Cu) (tedit 595A22DD)
  (fp_text reference Y2 (at -2.54 -0.254 180) (layer F.SilkS)
    (effects (font (size 0.5 0.5) (thickness 0.05)))
  )
  (fp_text value 32.768KHz (at 8.89 3.7465) (layer F.Fab) hide
    (effects (font (size 1 1) (thickness 0.15)))
  )
  (fp_line (start 1.975 -1.125) (end -1.975 -1.125) (layer F.SilkS) (width 0.15))
  (fp_line (start 1.975 1.175) (end 1.975 -1.125) (layer F.SilkS) (width 0.15))
  (fp_line (start -1.975 1.175) (end -1.975 -1.125) (layer F.SilkS) (width 0.15))
  (fp_line (start -1.975 1.175) (end 1.975 1.175) (layer F.SilkS) (width 0.15))
  (pad 2 smd rect (at 1.25 0) (size 1.1 1.9) (layers F.Cu F.Paste F.Mask))
  (pad 1 smd rect (at -1.25 0) (size 1.1 1.9) (layers F.Cu F.Paste F.Mask))
  (model Crystals.3dshapes/Q_49U3HMS.wrl
    (at (xyz 0 0 0))
    (scale (xyz 0.28 0.5 0.2))
    (rotate (xyz 0 0 0))
  )
)
