(module DFN-10-1EP_3x3mm_Pitch0.5 (layer F.Cu) (tedit 59BA3241)
  (descr "10-Lead Plastic Dual Flat, No Lead Package (MF) - 3x3x0.9 mm Body [DFN] (see Microchip Packaging Specification 00000049BS.pdf)")
  (tags "DFN 0.5")
  (attr smd)
  (fp_text reference U10 (at 0 -2.575) (layer F.SilkS)
    (effects (font (size 1 1) (thickness 0.15)))
  )
  (fp_text value MMA7660 (at 0 2.575) (layer F.Fab)
    (effects (font (size 1 1) (thickness 0.15)))
  )
  (fp_line (start -1.651 1.27) (end 1.651 1.27) (layer F.SilkS) (width 0.15))
  (fp_line (start 1.651 1.27) (end 1.651 0.635) (layer F.SilkS) (width 0.15))
  (fp_line (start 1.651 0.635) (end 1.651 -1.27) (layer F.SilkS) (width 0.15))
  (fp_line (start 1.651 -1.27) (end -1.651 -1.27) (layer F.SilkS) (width 0.15))
  (fp_line (start -1.651 -1.27) (end -1.651 1.27) (layer F.SilkS) (width 0.15))
  (pad 1 smd rect (at -1.24 -1) (size 0.65 0.3) (layers F.Cu F.Paste F.Mask))
  (pad 2 smd rect (at -1.24 -0.5) (size 0.65 0.3) (layers F.Cu F.Paste F.Mask))
  (pad 3 smd rect (at -1.24 0) (size 0.65 0.3) (layers F.Cu F.Paste F.Mask))
  (pad 4 smd rect (at -1.24 0.5) (size 0.65 0.3) (layers F.Cu F.Paste F.Mask))
  (pad 5 smd rect (at -1.24 1) (size 0.65 0.3) (layers F.Cu F.Paste F.Mask))
  (pad 6 smd rect (at 1.24 1) (size 0.65 0.3) (layers F.Cu F.Paste F.Mask))
  (pad 7 smd rect (at 1.24 0.5) (size 0.65 0.3) (layers F.Cu F.Paste F.Mask))
  (pad 8 smd rect (at 1.24 0) (size 0.65 0.3) (layers F.Cu F.Paste F.Mask))
  (pad 9 smd rect (at 1.24 -0.5) (size 0.65 0.3) (layers F.Cu F.Paste F.Mask))
  (pad 10 smd rect (at 1.24 -1) (size 0.65 0.3) (layers F.Cu F.Paste F.Mask))
  (model ${KISYS3DMOD}/Housings_DFN_QFN.3dshapes/DFN-10-1EP_3x3mm_Pitch0.5mm.wrl
    (at (xyz 0 0 0))
    (scale (xyz 1 1 1))
    (rotate (xyz 0 0 0))
  )
)
