(module Push_btoon_917-3970 (layer F.Cu) (tedit 59C60B30)
  (fp_text reference SW1 (at 0 1.905) (layer F.SilkS)
    (effects (font (size 0.5 0.5) (thickness 0.05)))
  )
  (fp_text value SW_Push (at 5.18 -1.79 90) (layer F.Fab) hide
    (effects (font (size 1 1) (thickness 0.15)))
  )
  (fp_line (start -2.725 -2.5) (end 2.725 -2.5) (layer F.SilkS) (width 0.15))
  (fp_line (start 2.725 -2.5) (end 2.725 2.5) (layer F.SilkS) (width 0.15))
  (fp_line (start 2.725 2.5) (end -2.725 2.5) (layer F.SilkS) (width 0.15))
  (fp_line (start -2.725 2.5) (end -2.725 -2.5) (layer F.SilkS) (width 0.15))
  (pad 1 smd rect (at -1.925 -1.95) (size 1 0.9) (layers F.Cu F.Paste F.Mask))
  (pad 2 smd rect (at -1.925 1.95) (size 1 0.9) (layers F.Cu F.Paste F.Mask))
  (pad 3 smd rect (at 1.925 -1.95) (size 1 0.9) (layers F.Cu F.Paste F.Mask))
  (pad 4 smd rect (at 1.925 1.95) (size 1 0.9) (layers F.Cu F.Paste F.Mask))
  (model Buttons_Switches_SMD.3dshapes/SW_SPST_EVQQ2_01W.wrl
    (at (xyz 0 0 0))
    (scale (xyz 0.8 0.5 0.6))
    (rotate (xyz 0 0 0))
  )
)
